Tidy Data - with packages tibble / tidyr / dplyr
…
Vectorized functions: take vectors as input and return vectors of the same length as output

#
#
# be carefull with storing grouped data <- will remain grouped
# use ungroup() if grouping not needed

(mtcars_df_still_grouped <- 
   mtcars_df %>% 
   group_by(cyl) %>%   
   mutate(number_1 = row_number()))

## # A tibble: 32 x 7
## # Groups: cyl [3]
##    model               mpg   cyl  disp    hp    am number_1
##    <chr>             <dbl> <dbl> <dbl> <dbl> <dbl>    <int>
##  1 Mazda RX4          21.0  6.00   160 110    1.00        1
##  2 Mazda RX4 Wag      21.0  6.00   160 110    1.00        2
##  3 Datsun 710         22.8  4.00   108  93.0  1.00        1
##  4 Hornet 4 Drive     21.4  6.00   258 110    0           3
##  5 Hornet Sportabout  18.7  8.00   360 175    0           1
##  6 Valiant            18.1  6.00   225 105    0           4
##  7 Duster 360         14.3  8.00   360 245    0           2
##  8 Merc 240D          24.4  4.00   147  62.0  0           2
##  9 Merc 230           22.8  4.00   141  95.0  0           3
## 10 Merc 280           19.2  6.00   168 123    0           5
## # ... with 22 more rows

mtcars_df_still_grouped %>% mutate(number_1b = row_number()) 

## # A tibble: 32 x 8
## # Groups: cyl [3]
##    model               mpg   cyl  disp    hp    am number_1 number_1b
##    <chr>             <dbl> <dbl> <dbl> <dbl> <dbl>    <int>     <int>
##  1 Mazda RX4          21.0  6.00   160 110    1.00        1         1
##  2 Mazda RX4 Wag      21.0  6.00   160 110    1.00        2         2
##  3 Datsun 710         22.8  4.00   108  93.0  1.00        1         1
##  4 Hornet 4 Drive     21.4  6.00   258 110    0           3         3
##  5 Hornet Sportabout  18.7  8.00   360 175    0           1         1
##  6 Valiant            18.1  6.00   225 105    0           4         4
##  7 Duster 360         14.3  8.00   360 245    0           2         2
##  8 Merc 240D          24.4  4.00   147  62.0  0           2         2
##  9 Merc 230           22.8  4.00   141  95.0  0           3         3
## 10 Merc 280           19.2  6.00   168 123    0           5         5
## # ... with 22 more rows

# same as number_1 since still grouped

(mtcars_df_ungrouped <- 
    mtcars_df %>% 
    group_by(cyl) %>%   
    mutate(number_2 = row_number()) %>% 
    ungroup()) 

## # A tibble: 32 x 7
##    model               mpg   cyl  disp    hp    am number_2
##    <chr>             <dbl> <dbl> <dbl> <dbl> <dbl>    <int>
##  1 Mazda RX4          21.0  6.00   160 110    1.00        1
##  2 Mazda RX4 Wag      21.0  6.00   160 110    1.00        2
##  3 Datsun 710         22.8  4.00   108  93.0  1.00        1
##  4 Hornet 4 Drive     21.4  6.00   258 110    0           3
##  5 Hornet Sportabout  18.7  8.00   360 175    0           1
##  6 Valiant            18.1  6.00   225 105    0           4
##  7 Duster 360         14.3  8.00   360 245    0           2
##  8 Merc 240D          24.4  4.00   147  62.0  0           2
##  9 Merc 230           22.8  4.00   141  95.0  0           3
## 10 Merc 280           19.2  6.00   168 123    0           5
## # ... with 22 more rows

mtcars_df_ungrouped %>% mutate(number_2b = row_number())

## # A tibble: 32 x 8
##    model               mpg   cyl  disp    hp    am number_2 number_2b
##    <chr>             <dbl> <dbl> <dbl> <dbl> <dbl>    <int>     <int>
##  1 Mazda RX4          21.0  6.00   160 110    1.00        1         1
##  2 Mazda RX4 Wag      21.0  6.00   160 110    1.00        2         2
##  3 Datsun 710         22.8  4.00   108  93.0  1.00        1         3
##  4 Hornet 4 Drive     21.4  6.00   258 110    0           3         4
##  5 Hornet Sportabout  18.7  8.00   360 175    0           1         5
##  6 Valiant            18.1  6.00   225 105    0           4         6
##  7 Duster 360         14.3  8.00   360 245    0           2         7
##  8 Merc 240D          24.4  4.00   147  62.0  0           2         8
##  9 Merc 230           22.8  4.00   141  95.0  0           3         9
## 10 Merc 280           19.2  6.00   168 123    0           5        10
## # ... with 22 more rows

# different to number_2 since running over ungrouped table

Combine Tables: Variables and Rows

#
#
# Combine rows with bind_rows
# Combine Variables with bind_cols() or "Mutating Join"
# use ungroup() if grouping not needed

bind_rows(mtcars_df_still_grouped, mtcars_df_ungrouped)

## # A tibble: 64 x 8
## # Groups: cyl [3]
##    model               mpg   cyl  disp    hp    am number_1 number_2
##    <chr>             <dbl> <dbl> <dbl> <dbl> <dbl>    <int>    <int>
##  1 Mazda RX4          21.0  6.00   160 110    1.00        1       NA
##  2 Mazda RX4 Wag      21.0  6.00   160 110    1.00        2       NA
##  3 Datsun 710         22.8  4.00   108  93.0  1.00        1       NA
##  4 Hornet 4 Drive     21.4  6.00   258 110    0           3       NA
##  5 Hornet Sportabout  18.7  8.00   360 175    0           1       NA
##  6 Valiant            18.1  6.00   225 105    0           4       NA
##  7 Duster 360         14.3  8.00   360 245    0           2       NA
##  8 Merc 240D          24.4  4.00   147  62.0  0           2       NA
##  9 Merc 230           22.8  4.00   141  95.0  0           3       NA
## 10 Merc 280           19.2  6.00   168 123    0           5       NA
## # ... with 54 more rows

# Paste tables below each other as they are

bind_cols(mtcars_df_still_grouped, mtcars_df_ungrouped) 

## # A tibble: 32 x 14
## # Groups: cyl [3]
##    model   mpg   cyl  disp    hp    am numb~ mode~  mpg1  cyl1 disp1   hp1
##    <chr> <dbl> <dbl> <dbl> <dbl> <dbl> <int> <chr> <dbl> <dbl> <dbl> <dbl>
##  1 Mazd~  21.0  6.00   160 110    1.00     1 Mazd~  21.0  6.00   160 110  
##  2 Mazd~  21.0  6.00   160 110    1.00     2 Mazd~  21.0  6.00   160 110  
##  3 Dats~  22.8  4.00   108  93.0  1.00     1 Dats~  22.8  4.00   108  93.0
##  4 Horn~  21.4  6.00   258 110    0        3 Horn~  21.4  6.00   258 110  
##  5 Horn~  18.7  8.00   360 175    0        1 Horn~  18.7  8.00   360 175  
##  6 Vali~  18.1  6.00   225 105    0        4 Vali~  18.1  6.00   225 105  
##  7 Dust~  14.3  8.00   360 245    0        2 Dust~  14.3  8.00   360 245  
##  8 Merc~  24.4  4.00   147  62.0  0        2 Merc~  24.4  4.00   147  62.0
##  9 Merc~  22.8  4.00   141  95.0  0        3 Merc~  22.8  4.00   141  95.0
## 10 Merc~  19.2  6.00   168 123    0        5 Merc~  19.2  6.00   168 123  
## # ... with 22 more rows, and 2 more variables: am1 <dbl>, number_2 <int>

# Returns tables placed side by side as a single table => even "former" rownames are doubled

left_join(mtcars_df_still_grouped, mtcars_df_ungrouped) 

## Joining, by = c("model", "mpg", "cyl", "disp", "hp", "am")

## # A tibble: 32 x 8
## # Groups: cyl [?]
##    model               mpg   cyl  disp    hp    am number_1 number_2
##    <chr>             <dbl> <dbl> <dbl> <dbl> <dbl>    <int>    <int>
##  1 Mazda RX4          21.0  6.00   160 110    1.00        1        1
##  2 Mazda RX4 Wag      21.0  6.00   160 110    1.00        2        2
##  3 Datsun 710         22.8  4.00   108  93.0  1.00        1        1
##  4 Hornet 4 Drive     21.4  6.00   258 110    0           3        3
##  5 Hornet Sportabout  18.7  8.00   360 175    0           1        1
##  6 Valiant            18.1  6.00   225 105    0           4        4
##  7 Duster 360         14.3  8.00   360 245    0           2        2
##  8 Merc 240D          24.4  4.00   147  62.0  0           2        2
##  9 Merc 230           22.8  4.00   141  95.0  0           3        3
## 10 Merc 280           19.2  6.00   168 123    0           5        5
## # ... with 22 more rows
…
